{
  "swagger": "2.0",
  "info": {
    "version": "1.0.0",
    "title": "REST API",
    "description": ""
  },
  "host": "localhost:3000",
  "basePath": "/",
  "tags": [],
  "schemes": [
    "http"
  ],
  "securityDefinitions": {},
  "consumes": [],
  "produces": [],
  "paths": {
    "/app": {
      "get": {
        "tags": [],
        "description": "",
        "parameters": [],
        "responses": {}
      }
    },
    "/cliente": {
      "post": {
        "tags": [],
        "description": "",
        "parameters": [],
        "responses": {
          "400": {
            "description": "Bad Request"
          },
          "500": {
            "description": "Internal Server Error"
          }
        }
      },
      "get": {
        "tags": [],
        "description": "",
        "parameters": [],
        "responses": {
          "500": {
            "description": "Internal Server Error"
          }
        }
      }
    },
    "/cliente/{clienteId}": {
      "get": {
        "tags": [],
        "description": "",
        "parameters": [
          {
            "name": "clienteId",
            "in": "path",
            "required": true
          }
        ],
        "responses": {
          "404": {
            "description": "Not Found"
          },
          "500": {
            "description": "Internal Server Error"
          }
        }
      },
      "delete": {
        "tags": [],
        "description": "",
        "parameters": [
          {
            "name": "clienteId",
            "in": "path",
            "required": true
          }
        ],
        "responses": {
          "404": {
            "description": "Not Found"
          },
          "500": {
            "description": "Internal Server Error"
          }
        }
      }
    },
    "/cliente/": {
      "put": {
        "tags": [],
        "description": "",
        "parameters": [ {
          "name": "clienteId",
          "in": "path",
          "required": true
        },{
          "name": "body",
            "in": "body",
            "required": true
        }
        ],
        "responses": {
          "400": {
            "description": "Bad Request"
          },
          "404": {
            "description": "Not Found"
          },
          "500": {
            "description": "Internal Server Error"
          }
        }
      }
    }
  },
  "definitions": {}
}